{
	"parent": "lycanitesmobs:item/summoningstaff",
	"textures": {
		"layer0": "lycanitesmobs:item/bloodsummoningstaff"
	},
	"overrides": [
        {
            "predicate": {
                "using": 1
            },
            "model": "lycanitesmobs:item/bloodsummoningstaff_fire"
        }
	]
}
