{
	"parent": "item/generated",
	"textures": {
		"layer0": "lycanitesmobs:item/soulgazer"
	},
	"display": {
		"thirdperson": {
			"rotation": [ -90, 0, 0 ],
			"translation": [ 0, 1, -3 ],
			"scale": [ 0.275, 0.275, 0.275 ]
		},
		"firstperson": {
			"rotation": [ 0, -135, 25 ],
			"translation": [ 0, 4, 2 ],
			"scale": [ 5.35, 5.35, 5.35 ]
		}
	}
}
